^C:\PP_INF_2013_TETRIS\F\DEBUG\F.EXE.EMBED.MANIFEST.RES|C:\PP_INF_2013_TETRIS\F\DEBUG\FUNKCJA.OBJ|C:\PP_INF_2013_TETRIS\F\DEBUG\MAIN.OBJ
C:\PP_INF_2013_TETRIS\DEBUG\F.ILK
C:\PP_INF_2013_TETRIS\DEBUG\F.EXE
C:\PP_INF_2013_TETRIS\F\DEBUG\F.EXE.INTERMEDIATE.MANIFEST
C:\PP_INF_2013_TETRIS\DEBUG\F.PDB
